while(true)
		{
		System.out.println("1.Retrive all File in assending order \n 2.Business-level operations \n 3.Close the Application");
		int sno = sc.next();
		if(sno==1){
			String path = "C:\\SIMPLI L_PR1";
			File file = new File (path);
			File SIMPLIL_PR1[] = file.listFiles();
			Arrays.sort(SIMPLIL_PR1);
			for(File e:SIMPLIL_PR1) {
				if(e.isFile()) {
					System.out.println("File: " + e.getName());
				}else if (e.isDirectory()) {
					System.out.println("Folder: "+ e.getName());
				}
				else {
					System.out.println("Not known :" + e.getName());
				}
			}
		}
		if(ch.equals("Yes") || ch.equals("No"))
		{
			StdInfo  std = null;
			switch(ch)
			{
			case "Yes":	
				std = new StdInfo(sid,sname,loc);
				break;
			case "No":
				System.out.println("College Name : ");
				String clg = sc.next();
				std = new StdInfo(sid,sname,loc, clg);
				break;  
			}


****************************************************************************8888
String path = "C:\\SIMPLI L_PR1";
		File file = new File (path);
		File SIMPLIL_PR1[] = file.listFiles();
		Arrays.sort(SIMPLIL_PR1);
		for(File e:SIMPLIL_PR1) {
			if(e.isFile()) {
				System.out.println("File: " + e.getName());
			}else if (e.isDirectory()) {
				System.out.println("Folder: "+ e.getName());
			}
			else {
				System.out.println("Not known :" + e.getName());
			}
		}
		
		FileCreate fc = new FileCreate();
		fc.create();
		FileWriting fw = new FileWriting();
		fw.write();
		FileDelete fd = new  FileDelete();
		fd.delete();
	}
------------------------------------------------
		String path = "C:\\SIMPLI L_PR1";
		File file = new File (path);
		File SIMPLIL_PR1[] = file.listFiles();
		List<File>  flList = new ArrayList<File>();
		System.out.println("Roll Number to Search : ");
		int rno = sc.nextInt();
		boolean b = false;
		for(File s : stdList)
		{
			if(s.getFile()==rno)
			{
				System.out.println(s);
				b = true;
				break;
			}
		}
		
		if(b==false)
			System.out.println("Student Not Found....");
	}


abcd
while(ch== a || ch==b|| ch== c)